{"actions":[{"id":1039699860,"status":"completed","type":"create","started_at":"2020-10-08T14:43:29Z","completed_at":"2020-10-08T14:43:53Z","resource_id":211256137,"resource_type":"droplet","region":{"name":"San Francisco 3","slug":"sfo3","features":["private_networking","backups","ipv6","metadata","install_agent","storage","image_transfer"],"available":true,"sizes":["s-1vcpu-1gb","512mb","1gb","s-3vcpu-1gb","2gb","s-2vcpu-2gb","s-1vcpu-2gb","s-1vcpu-3gb","4gb","s-2vcpu-4gb","c-2","m-1vcpu-8gb","c-4","s-4vcpu-8gb","gd-2vcpu-8gb","g-2vcpu-8gb","8gb","s-6vcpu-16gb","m-16gb","16gb","32gb","m-32gb","s-8vcpu-32gb","48gb","s-12vcpu-48gb","m-64gb","64gb","s-16vcpu-64gb","s-20vcpu-96gb","s-24vcpu-128gb","m-128gb","s-32vcpu-192gb","m-224gb","m6-2vcpu-16gb","m3-2vcpu-16gb","m-2vcpu-16gb","s-8vcpu-16gb","c2-2vcpu-4gb","c2-4vpcu-8gb","c2-8vpcu-16gb","c2-16vcpu-32gb","c2-32vpcu-64gb"]},"region_slug":"sfo3"},{"id":1039699861,"status":"completed","type":"create","started_at":"2020-10-08T14:43:29Z","completed_at":"2020-10-08T14:43:51Z","resource_id":211256138,"resource_type":"droplet","region":{"name":"San Francisco 3","slug":"sfo3","features":["private_networking","backups","ipv6","metadata","install_agent","storage","image_transfer"],"available":true,"sizes":["s-1vcpu-1gb","512mb","1gb","s-3vcpu-1gb","2gb","s-2vcpu-2gb","s-1vcpu-2gb","s-1vcpu-3gb","4gb","s-2vcpu-4gb","c-2","m-1vcpu-8gb","c-4","s-4vcpu-8gb","gd-2vcpu-8gb","g-2vcpu-8gb","8gb","s-6vcpu-16gb","m-16gb","16gb","32gb","m-32gb","s-8vcpu-32gb","48gb","s-12vcpu-48gb","m-64gb","64gb","s-16vcpu-64gb","s-20vcpu-96gb","s-24vcpu-128gb","m-128gb","s-32vcpu-192gb","m-224gb","m6-2vcpu-16gb","m3-2vcpu-16gb","m-2vcpu-16gb","s-8vcpu-16gb","c2-2vcpu-4gb","c2-4vpcu-8gb","c2-8vpcu-16gb","c2-16vcpu-32gb","c2-32vpcu-64gb"]},"region_slug":"sfo3"},{"id":1039699411,"status":"completed","type":"destroy","started_at":"2020-10-08T14:42:38Z","completed_at":"2020-10-08T14:42:44Z","resource_id":211182384,"resource_type":"droplet","region":{"name":"San Francisco 3","slug":"sfo3","features":["private_networking","backups","ipv6","metadata","install_agent","storage","image_transfer"],"available":true,"sizes":["s-1vcpu-1gb","512mb","1gb","s-3vcpu-1gb","2gb","s-2vcpu-2gb","s-1vcpu-2gb","s-1vcpu-3gb","4gb","s-2vcpu-4gb","c-2","m-1vcpu-8gb","c-4","s-4vcpu-8gb","gd-2vcpu-8gb","g-2vcpu-8gb","8gb","s-6vcpu-16gb","m-16gb","16gb","32gb","m-32gb","s-8vcpu-32gb","48gb","s-12vcpu-48gb","m-64gb","64gb","s-16vcpu-64gb","s-20vcpu-96gb","s-24vcpu-128gb","m-128gb","s-32vcpu-192gb","m-224gb","m6-2vcpu-16gb","m3-2vcpu-16gb","m-2vcpu-16gb","s-8vcpu-16gb","c2-2vcpu-4gb","c2-4vpcu-8gb","c2-8vpcu-16gb","c2-16vcpu-32gb","c2-32vpcu-64gb"]},"region_slug":"sfo3"},{"id":1039699413,"status":"completed","type":"destroy","started_at":"2020-10-08T14:42:38Z","completed_at":"2020-10-08T14:42:44Z","resource_id":211182383,"resource_type":"droplet","region":{"name":"San Francisco 3","slug":"sfo3","features":["private_networking","backups","ipv6","metadata","install_agent","storage","image_transfer"],"available":true,"sizes":["s-1vcpu-1gb","512mb","1gb","s-3vcpu-1gb","2gb","s-2vcpu-2gb","s-1vcpu-2gb","s-1vcpu-3gb","4gb","s-2vcpu-4gb","c-2","m-1vcpu-8gb","c-4","s-4vcpu-8gb","gd-2vcpu-8gb","g-2vcpu-8gb","8gb","s-6vcpu-16gb","m-16gb","16gb","32gb","m-32gb","s-8vcpu-32gb","48gb","s-12vcpu-48gb","m-64gb","64gb","s-16vcpu-64gb","s-20vcpu-96gb","s-24vcpu-128gb","m-128gb","s-32vcpu-192gb","m-224gb","m6-2vcpu-16gb","m3-2vcpu-16gb","m-2vcpu-16gb","s-8vcpu-16gb","c2-2vcpu-4gb","c2-4vpcu-8gb","c2-8vpcu-16gb","c2-16vcpu-32gb","c2-32vpcu-64gb"]},"region_slug":"sfo3"},{"id":1039353912,"status":"completed","type":"destroy","started_at":"2020-10-08T03:13:10Z","completed_at":"2020-10-08T03:13:16Z","resource_id":211181916,"resource_type":"droplet","region":{"name":"San Francisco 3","slug":"sfo3","features":["private_networking","backups","ipv6","metadata","install_agent","storage","image_transfer"],"available":true,"sizes":["s-1vcpu-1gb","512mb","1gb","s-3vcpu-1gb","2gb","s-2vcpu-2gb","s-1vcpu-2gb","s-1vcpu-3gb","4gb","s-2vcpu-4gb","c-2","m-1vcpu-8gb","c-4","s-4vcpu-8gb","gd-2vcpu-8gb","g-2vcpu-8gb","8gb","s-6vcpu-16gb","m-16gb","16gb","32gb","m-32gb","s-8vcpu-32gb","48gb","s-12vcpu-48gb","m-64gb","64gb","s-16vcpu-64gb","s-20vcpu-96gb","s-24vcpu-128gb","m-128gb","s-32vcpu-192gb","m-224gb","m6-2vcpu-16gb","m3-2vcpu-16gb","m-2vcpu-16gb","s-8vcpu-16gb","c2-2vcpu-4gb","c2-4vpcu-8gb","c2-8vpcu-16gb","c2-16vcpu-32gb","c2-32vpcu-64gb"]},"region_slug":"sfo3"},{"id":1039353913,"status":"completed","type":"destroy","started_at":"2020-10-08T03:13:10Z","completed_at":"2020-10-08T03:13:17Z","resource_id":211181917,"resource_type":"droplet","region":{"name":"San Francisco 3","slug":"sfo3","features":["private_networking","backups","ipv6","metadata","install_agent","storage","image_transfer"],"available":true,"sizes":["s-1vcpu-1gb","512mb","1gb","s-3vcpu-1gb","2gb","s-2vcpu-2gb","s-1vcpu-2gb","s-1vcpu-3gb","4gb","s-2vcpu-4gb","c-2","m-1vcpu-8gb","c-4","s-4vcpu-8gb","gd-2vcpu-8gb","g-2vcpu-8gb","8gb","s-6vcpu-16gb","m-16gb","16gb","32gb","m-32gb","s-8vcpu-32gb","48gb","s-12vcpu-48gb","m-64gb","64gb","s-16vcpu-64gb","s-20vcpu-96gb","s-24vcpu-128gb","m-128gb","s-32vcpu-192gb","m-224gb","m6-2vcpu-16gb","m3-2vcpu-16gb","m-2vcpu-16gb","s-8vcpu-16gb","c2-2vcpu-4gb","c2-4vpcu-8gb","c2-8vpcu-16gb","c2-16vcpu-32gb","c2-32vpcu-64gb"]},"region_slug":"sfo3"},{"id":1039353846,"status":"completed","type":"create","started_at":"2020-10-08T03:13:01Z","completed_at":"2020-10-08T03:13:22Z","resource_id":211182383,"resource_type":"droplet","region":{"name":"San Francisco 3","slug":"sfo3","features":["private_networking","backups","ipv6","metadata","install_agent","storage","image_transfer"],"available":true,"sizes":["s-1vcpu-1gb","512mb","1gb","s-3vcpu-1gb","2gb","s-2vcpu-2gb","s-1vcpu-2gb","s-1vcpu-3gb","4gb","s-2vcpu-4gb","c-2","m-1vcpu-8gb","c-4","s-4vcpu-8gb","gd-2vcpu-8gb","g-2vcpu-8gb","8gb","s-6vcpu-16gb","m-16gb","16gb","32gb","m-32gb","s-8vcpu-32gb","48gb","s-12vcpu-48gb","m-64gb","64gb","s-16vcpu-64gb","s-20vcpu-96gb","s-24vcpu-128gb","m-128gb","s-32vcpu-192gb","m-224gb","m6-2vcpu-16gb","m3-2vcpu-16gb","m-2vcpu-16gb","s-8vcpu-16gb","c2-2vcpu-4gb","c2-4vpcu-8gb","c2-8vpcu-16gb","c2-16vcpu-32gb","c2-32vpcu-64gb"]},"region_slug":"sfo3"},{"id":1039353847,"status":"completed","type":"create","started_at":"2020-10-08T03:13:01Z","completed_at":"2020-10-08T03:13:22Z","resource_id":211182384,"resource_type":"droplet","region":{"name":"San Francisco 3","slug":"sfo3","features":["private_networking","backups","ipv6","metadata","install_agent","storage","image_transfer"],"available":true,"sizes":["s-1vcpu-1gb","512mb","1gb","s-3vcpu-1gb","2gb","s-2vcpu-2gb","s-1vcpu-2gb","s-1vcpu-3gb","4gb","s-2vcpu-4gb","c-2","m-1vcpu-8gb","c-4","s-4vcpu-8gb","gd-2vcpu-8gb","g-2vcpu-8gb","8gb","s-6vcpu-16gb","m-16gb","16gb","32gb","m-32gb","s-8vcpu-32gb","48gb","s-12vcpu-48gb","m-64gb","64gb","s-16vcpu-64gb","s-20vcpu-96gb","s-24vcpu-128gb","m-128gb","s-32vcpu-192gb","m-224gb","m6-2vcpu-16gb","m3-2vcpu-16gb","m-2vcpu-16gb","s-8vcpu-16gb","c2-2vcpu-4gb","c2-4vpcu-8gb","c2-8vpcu-16gb","c2-16vcpu-32gb","c2-32vpcu-64gb"]},"region_slug":"sfo3"},{"id":1039350330,"status":"completed","type":"create","started_at":"2020-10-08T03:07:04Z","completed_at":"2020-10-08T03:07:23Z","resource_id":211181916,"resource_type":"droplet","region":{"name":"San Francisco 3","slug":"sfo3","features":["private_networking","backups","ipv6","metadata","install_agent","storage","image_transfer"],"available":true,"sizes":["s-1vcpu-1gb","512mb","1gb","s-3vcpu-1gb","2gb","s-2vcpu-2gb","s-1vcpu-2gb","s-1vcpu-3gb","4gb","s-2vcpu-4gb","c-2","m-1vcpu-8gb","c-4","s-4vcpu-8gb","gd-2vcpu-8gb","g-2vcpu-8gb","8gb","s-6vcpu-16gb","m-16gb","16gb","32gb","m-32gb","s-8vcpu-32gb","48gb","s-12vcpu-48gb","m-64gb","64gb","s-16vcpu-64gb","s-20vcpu-96gb","s-24vcpu-128gb","m-128gb","s-32vcpu-192gb","m-224gb","m6-2vcpu-16gb","m3-2vcpu-16gb","m-2vcpu-16gb","s-8vcpu-16gb","c2-2vcpu-4gb","c2-4vpcu-8gb","c2-8vpcu-16gb","c2-16vcpu-32gb","c2-32vpcu-64gb"]},"region_slug":"sfo3"},{"id":1039350337,"status":"completed","type":"create","started_at":"2020-10-08T03:07:04Z","completed_at":"2020-10-08T03:07:31Z","resource_id":211181917,"resource_type":"droplet","region":{"name":"San Francisco 3","slug":"sfo3","features":["private_networking","backups","ipv6","metadata","install_agent","storage","image_transfer"],"available":true,"sizes":["s-1vcpu-1gb","512mb","1gb","s-3vcpu-1gb","2gb","s-2vcpu-2gb","s-1vcpu-2gb","s-1vcpu-3gb","4gb","s-2vcpu-4gb","c-2","m-1vcpu-8gb","c-4","s-4vcpu-8gb","gd-2vcpu-8gb","g-2vcpu-8gb","8gb","s-6vcpu-16gb","m-16gb","16gb","32gb","m-32gb","s-8vcpu-32gb","48gb","s-12vcpu-48gb","m-64gb","64gb","s-16vcpu-64gb","s-20vcpu-96gb","s-24vcpu-128gb","m-128gb","s-32vcpu-192gb","m-224gb","m6-2vcpu-16gb","m3-2vcpu-16gb","m-2vcpu-16gb","s-8vcpu-16gb","c2-2vcpu-4gb","c2-4vpcu-8gb","c2-8vpcu-16gb","c2-16vcpu-32gb","c2-32vpcu-64gb"]},"region_slug":"sfo3"},{"id":1039344583,"status":"completed","type":"destroy","started_at":"2020-10-08T02:57:34Z","completed_at":"2020-10-08T02:57:40Z","resource_id":211175300,"resource_type":"droplet","region":{"name":"San Francisco 3","slug":"sfo3","features":["private_networking","backups","ipv6","metadata","install_agent","storage","image_transfer"],"available":true,"sizes":["s-1vcpu-1gb","512mb","1gb","s-3vcpu-1gb","2gb","s-2vcpu-2gb","s-1vcpu-2gb","s-1vcpu-3gb","4gb","s-2vcpu-4gb","c-2","m-1vcpu-8gb","c-4","s-4vcpu-8gb","gd-2vcpu-8gb","g-2vcpu-8gb","8gb","s-6vcpu-16gb","m-16gb","16gb","32gb","m-32gb","s-8vcpu-32gb","48gb","s-12vcpu-48gb","m-64gb","64gb","s-16vcpu-64gb","s-20vcpu-96gb","s-24vcpu-128gb","m-128gb","s-32vcpu-192gb","m-224gb","m6-2vcpu-16gb","m3-2vcpu-16gb","m-2vcpu-16gb","s-8vcpu-16gb","c2-2vcpu-4gb","c2-4vpcu-8gb","c2-8vpcu-16gb","c2-16vcpu-32gb","c2-32vpcu-64gb"]},"region_slug":"sfo3"},{"id":1039344584,"status":"completed","type":"destroy","started_at":"2020-10-08T02:57:34Z","completed_at":"2020-10-08T02:57:41Z","resource_id":211175301,"resource_type":"droplet","region":{"name":"San Francisco 3","slug":"sfo3","features":["private_networking","backups","ipv6","metadata","install_agent","storage","image_transfer"],"available":true,"sizes":["s-1vcpu-1gb","512mb","1gb","s-3vcpu-1gb","2gb","s-2vcpu-2gb","s-1vcpu-2gb","s-1vcpu-3gb","4gb","s-2vcpu-4gb","c-2","m-1vcpu-8gb","c-4","s-4vcpu-8gb","gd-2vcpu-8gb","g-2vcpu-8gb","8gb","s-6vcpu-16gb","m-16gb","16gb","32gb","m-32gb","s-8vcpu-32gb","48gb","s-12vcpu-48gb","m-64gb","64gb","s-16vcpu-64gb","s-20vcpu-96gb","s-24vcpu-128gb","m-128gb","s-32vcpu-192gb","m-224gb","m6-2vcpu-16gb","m3-2vcpu-16gb","m-2vcpu-16gb","s-8vcpu-16gb","c2-2vcpu-4gb","c2-4vpcu-8gb","c2-8vpcu-16gb","c2-16vcpu-32gb","c2-32vpcu-64gb"]},"region_slug":"sfo3"},{"id":1039311601,"status":"completed","type":"create","started_at":"2020-10-08T01:58:43Z","completed_at":"2020-10-08T01:59:05Z","resource_id":211175301,"resource_type":"droplet","region":{"name":"San Francisco 3","slug":"sfo3","features":["private_networking","backups","ipv6","metadata","install_agent","storage","image_transfer"],"available":true,"sizes":["s-1vcpu-1gb","512mb","1gb","s-3vcpu-1gb","2gb","s-2vcpu-2gb","s-1vcpu-2gb","s-1vcpu-3gb","4gb","s-2vcpu-4gb","c-2","m-1vcpu-8gb","c-4","s-4vcpu-8gb","gd-2vcpu-8gb","g-2vcpu-8gb","8gb","s-6vcpu-16gb","m-16gb","16gb","32gb","m-32gb","s-8vcpu-32gb","48gb","s-12vcpu-48gb","m-64gb","64gb","s-16vcpu-64gb","s-20vcpu-96gb","s-24vcpu-128gb","m-128gb","s-32vcpu-192gb","m-224gb","m6-2vcpu-16gb","m3-2vcpu-16gb","m-2vcpu-16gb","s-8vcpu-16gb","c2-2vcpu-4gb","c2-4vpcu-8gb","c2-8vpcu-16gb","c2-16vcpu-32gb","c2-32vpcu-64gb"]},"region_slug":"sfo3"},{"id":1039311602,"status":"completed","type":"create","started_at":"2020-10-08T01:58:43Z","completed_at":"2020-10-08T01:59:04Z","resource_id":211175300,"resource_type":"droplet","region":{"name":"San Francisco 3","slug":"sfo3","features":["private_networking","backups","ipv6","metadata","install_agent","storage","image_transfer"],"available":true,"sizes":["s-1vcpu-1gb","512mb","1gb","s-3vcpu-1gb","2gb","s-2vcpu-2gb","s-1vcpu-2gb","s-1vcpu-3gb","4gb","s-2vcpu-4gb","c-2","m-1vcpu-8gb","c-4","s-4vcpu-8gb","gd-2vcpu-8gb","g-2vcpu-8gb","8gb","s-6vcpu-16gb","m-16gb","16gb","32gb","m-32gb","s-8vcpu-32gb","48gb","s-12vcpu-48gb","m-64gb","64gb","s-16vcpu-64gb","s-20vcpu-96gb","s-24vcpu-128gb","m-128gb","s-32vcpu-192gb","m-224gb","m6-2vcpu-16gb","m3-2vcpu-16gb","m-2vcpu-16gb","s-8vcpu-16gb","c2-2vcpu-4gb","c2-4vpcu-8gb","c2-8vpcu-16gb","c2-16vcpu-32gb","c2-32vpcu-64gb"]},"region_slug":"sfo3"},{"id":1039298104,"status":"completed","type":"destroy","started_at":"2020-10-08T01:30:59Z","completed_at":"2020-10-08T01:31:09Z","resource_id":211172512,"resource_type":"droplet","region":{"name":"San Francisco 3","slug":"sfo3","features":["private_networking","backups","ipv6","metadata","install_agent","storage","image_transfer"],"available":true,"sizes":["s-1vcpu-1gb","512mb","1gb","s-3vcpu-1gb","2gb","s-2vcpu-2gb","s-1vcpu-2gb","s-1vcpu-3gb","4gb","s-2vcpu-4gb","c-2","m-1vcpu-8gb","c-4","s-4vcpu-8gb","gd-2vcpu-8gb","g-2vcpu-8gb","8gb","s-6vcpu-16gb","m-16gb","16gb","32gb","m-32gb","s-8vcpu-32gb","48gb","s-12vcpu-48gb","m-64gb","64gb","s-16vcpu-64gb","s-20vcpu-96gb","s-24vcpu-128gb","m-128gb","s-32vcpu-192gb","m-224gb","m6-2vcpu-16gb","m3-2vcpu-16gb","m-2vcpu-16gb","s-8vcpu-16gb","c2-2vcpu-4gb","c2-4vpcu-8gb","c2-8vpcu-16gb","c2-16vcpu-32gb","c2-32vpcu-64gb"]},"region_slug":"sfo3"},{"id":1039295373,"status":"completed","type":"create","started_at":"2020-10-08T01:26:22Z","completed_at":"2020-10-08T01:26:42Z","resource_id":211172512,"resource_type":"droplet","region":{"name":"San Francisco 3","slug":"sfo3","features":["private_networking","backups","ipv6","metadata","install_agent","storage","image_transfer"],"available":true,"sizes":["s-1vcpu-1gb","512mb","1gb","s-3vcpu-1gb","2gb","s-2vcpu-2gb","s-1vcpu-2gb","s-1vcpu-3gb","4gb","s-2vcpu-4gb","c-2","m-1vcpu-8gb","c-4","s-4vcpu-8gb","gd-2vcpu-8gb","g-2vcpu-8gb","8gb","s-6vcpu-16gb","m-16gb","16gb","32gb","m-32gb","s-8vcpu-32gb","48gb","s-12vcpu-48gb","m-64gb","64gb","s-16vcpu-64gb","s-20vcpu-96gb","s-24vcpu-128gb","m-128gb","s-32vcpu-192gb","m-224gb","m6-2vcpu-16gb","m3-2vcpu-16gb","m-2vcpu-16gb","s-8vcpu-16gb","c2-2vcpu-4gb","c2-4vpcu-8gb","c2-8vpcu-16gb","c2-16vcpu-32gb","c2-32vpcu-64gb"]},"region_slug":"sfo3"},{"id":1039292168,"status":"completed","type":"destroy","started_at":"2020-10-08T01:20:38Z","completed_at":"2020-10-08T01:20:46Z","resource_id":211171467,"resource_type":"droplet","region":{"name":"San Francisco 3","slug":"sfo3","features":["private_networking","backups","ipv6","metadata","install_agent","storage","image_transfer"],"available":true,"sizes":["s-1vcpu-1gb","512mb","1gb","s-3vcpu-1gb","2gb","s-2vcpu-2gb","s-1vcpu-2gb","s-1vcpu-3gb","4gb","s-2vcpu-4gb","c-2","m-1vcpu-8gb","c-4","s-4vcpu-8gb","gd-2vcpu-8gb","g-2vcpu-8gb","8gb","s-6vcpu-16gb","m-16gb","16gb","32gb","m-32gb","s-8vcpu-32gb","48gb","s-12vcpu-48gb","m-64gb","64gb","s-16vcpu-64gb","s-20vcpu-96gb","s-24vcpu-128gb","m-128gb","s-32vcpu-192gb","m-224gb","m6-2vcpu-16gb","m3-2vcpu-16gb","m-2vcpu-16gb","s-8vcpu-16gb","c2-2vcpu-4gb","c2-4vpcu-8gb","c2-8vpcu-16gb","c2-16vcpu-32gb","c2-32vpcu-64gb"]},"region_slug":"sfo3"},{"id":1039290126,"status":"completed","type":"create","started_at":"2020-10-08T01:15:38Z","completed_at":"2020-10-08T01:16:05Z","resource_id":211171467,"resource_type":"droplet","region":{"name":"San Francisco 3","slug":"sfo3","features":["private_networking","backups","ipv6","metadata","install_agent","storage","image_transfer"],"available":true,"sizes":["s-1vcpu-1gb","512mb","1gb","s-3vcpu-1gb","2gb","s-2vcpu-2gb","s-1vcpu-2gb","s-1vcpu-3gb","4gb","s-2vcpu-4gb","c-2","m-1vcpu-8gb","c-4","s-4vcpu-8gb","gd-2vcpu-8gb","g-2vcpu-8gb","8gb","s-6vcpu-16gb","m-16gb","16gb","32gb","m-32gb","s-8vcpu-32gb","48gb","s-12vcpu-48gb","m-64gb","64gb","s-16vcpu-64gb","s-20vcpu-96gb","s-24vcpu-128gb","m-128gb","s-32vcpu-192gb","m-224gb","m6-2vcpu-16gb","m3-2vcpu-16gb","m-2vcpu-16gb","s-8vcpu-16gb","c2-2vcpu-4gb","c2-4vpcu-8gb","c2-8vpcu-16gb","c2-16vcpu-32gb","c2-32vpcu-64gb"]},"region_slug":"sfo3"},{"id":1039286339,"status":"completed","type":"destroy","started_at":"2020-10-08T01:08:04Z","completed_at":"2020-10-08T01:08:10Z","resource_id":211167287,"resource_type":"droplet","region":{"name":"San Francisco 3","slug":"sfo3","features":["private_networking","backups","ipv6","metadata","install_agent","storage","image_transfer"],"available":true,"sizes":["s-1vcpu-1gb","512mb","1gb","s-3vcpu-1gb","2gb","s-2vcpu-2gb","s-1vcpu-2gb","s-1vcpu-3gb","4gb","s-2vcpu-4gb","c-2","m-1vcpu-8gb","c-4","s-4vcpu-8gb","gd-2vcpu-8gb","g-2vcpu-8gb","8gb","s-6vcpu-16gb","m-16gb","16gb","32gb","m-32gb","s-8vcpu-32gb","48gb","s-12vcpu-48gb","m-64gb","64gb","s-16vcpu-64gb","s-20vcpu-96gb","s-24vcpu-128gb","m-128gb","s-32vcpu-192gb","m-224gb","m6-2vcpu-16gb","m3-2vcpu-16gb","m-2vcpu-16gb","s-8vcpu-16gb","c2-2vcpu-4gb","c2-4vpcu-8gb","c2-8vpcu-16gb","c2-16vcpu-32gb","c2-32vpcu-64gb"]},"region_slug":"sfo3"},{"id":1039269816,"status":"completed","type":"create","started_at":"2020-10-08T00:35:56Z","completed_at":"2020-10-08T00:36:15Z","resource_id":211167287,"resource_type":"droplet","region":{"name":"San Francisco 3","slug":"sfo3","features":["private_networking","backups","ipv6","metadata","install_agent","storage","image_transfer"],"available":true,"sizes":["s-1vcpu-1gb","512mb","1gb","s-3vcpu-1gb","2gb","s-2vcpu-2gb","s-1vcpu-2gb","s-1vcpu-3gb","4gb","s-2vcpu-4gb","c-2","m-1vcpu-8gb","c-4","s-4vcpu-8gb","gd-2vcpu-8gb","g-2vcpu-8gb","8gb","s-6vcpu-16gb","m-16gb","16gb","32gb","m-32gb","s-8vcpu-32gb","48gb","s-12vcpu-48gb","m-64gb","64gb","s-16vcpu-64gb","s-20vcpu-96gb","s-24vcpu-128gb","m-128gb","s-32vcpu-192gb","m-224gb","m6-2vcpu-16gb","m3-2vcpu-16gb","m-2vcpu-16gb","s-8vcpu-16gb","c2-2vcpu-4gb","c2-4vpcu-8gb","c2-8vpcu-16gb","c2-16vcpu-32gb","c2-32vpcu-64gb"]},"region_slug":"sfo3"}],"links":{"pages":{"last":"https://api.digitalocean.com/v2/actions?page=2","next":"https://api.digitalocean.com/v2/actions?page=2"}},"meta":{"total":38}}